# This file uses centimeters as units for non-parametric coordinates.

mtllib skydome.mtl
g default
v 6.450446 0.000000 -2.095877
v 5.487077 0.000000 -3.986594
v 3.986594 0.000000 -5.487076
v 2.095876 0.000000 -6.450444
v -0.000000 0.000000 -6.782398
v -2.095876 0.000000 -6.450444
v -3.986593 0.000000 -5.487076
v -5.487075 0.000000 -3.986593
v -6.450443 0.000000 -2.095876
v -6.782397 0.000000 -0.000000
v -6.450443 0.000000 2.095876
v -5.487074 0.000000 3.986593
v -3.986593 0.000000 5.487074
v -2.095876 0.000000 6.450442
v -0.000000 0.000000 6.782396
v 2.095875 0.000000 6.450442
v 3.986592 0.000000 5.487073
v 5.487073 0.000000 3.986592
v 6.450441 0.000000 2.095875
v 6.782395 0.000000 -0.000000
v 6.371030 1.061000 -2.070073
v 5.419522 1.061000 -3.937513
v 3.937513 1.061000 -5.419521
v 2.070073 1.061000 -6.371029
v 0.000000 1.061000 -6.698896
v -2.070073 1.061000 -6.371028
v -3.937512 1.061000 -5.419520
v -5.419520 1.061000 -3.937512
v -6.371028 1.061000 -2.070072
v -6.698894 1.061000 0.000000
v -6.371028 1.061000 2.070072
v -5.419520 1.061000 3.937511
v -3.937511 1.061000 5.419519
v -2.070072 1.061000 6.371026
v -0.000000 1.061000 6.698894
v 2.070072 1.061000 6.371026
v 3.937510 1.061000 5.419518
v 5.419518 1.061000 3.937511
v 6.371026 1.061000 2.070072
v 6.698894 1.061000 0.000000
v 6.134738 2.095875 -1.993297
v 5.218520 2.095875 -3.791477
v 3.791477 2.095875 -5.218520
v 1.993297 2.095875 -6.134738
v 0.000000 2.095875 -6.450444
v -1.993297 2.095875 -6.134738
v -3.791476 2.095875 -5.218519
v -5.218519 2.095875 -3.791475
v -6.134736 2.095875 -1.993296
v -6.450443 2.095875 0.000000
v -6.134736 2.095875 1.993296
v -5.218519 2.095875 3.791475
v -3.791475 2.095875 5.218518
v -1.993296 2.095875 6.134735
v -0.000000 2.095875 6.450442
v 1.993296 2.095875 6.134735
v 3.791474 2.095875 5.218517
v 5.218517 2.095875 3.791475
v 6.134735 2.095875 1.993296
v 6.450441 2.095875 0.000000
v 5.747389 3.079143 -1.867440
v 4.889021 3.079143 -3.552081
v 3.552081 3.079143 -4.889021
v 1.867440 3.079143 -5.747388
v 0.000000 3.079143 -6.043161
v -1.867440 3.079143 -5.747388
v -3.552081 3.079143 -4.889020
v -4.889020 3.079143 -3.552080
v -5.747387 3.079143 -1.867439
v -6.043160 3.079143 0.000000
v -5.747387 3.079143 1.867439
v -4.889020 3.079143 3.552080
v -3.552080 3.079143 4.889020
v -1.867439 3.079143 5.747386
v -0.000000 3.079143 6.043160
v 1.867439 3.079143 5.747386
v 3.552079 3.079143 4.889018
v 4.889018 3.079143 3.552080
v 5.747386 3.079143 1.867439
v 6.043158 3.079143 0.000000
v 5.218520 3.986592 -1.695600
v 4.439138 3.986592 -3.225222
v 3.225222 3.986592 -4.439138
v 1.695600 3.986592 -5.218519
v 0.000000 3.986592 -5.487076
v -1.695600 3.986592 -5.218519
v -3.225222 3.986592 -4.439138
v -4.439138 3.986592 -3.225222
v -5.218519 3.986592 -1.695599
v -5.487074 3.986592 0.000000
v -5.218519 3.986592 1.695599
v -4.439136 3.986592 3.225222
v -3.225222 3.986592 4.439136
v -1.695599 3.986592 5.218517
v -0.000000 3.986592 5.487074
v 1.695599 3.986592 5.218517
v 3.225221 3.986592 4.439135
v 4.439135 3.986592 3.225221
v 5.218517 3.986592 1.695599
v 5.487073 3.986592 0.000000
v 4.561154 4.795878 -1.482009
v 3.879949 4.795878 -2.818948
v 2.818948 4.795878 -3.879949
v 1.482008 4.795878 -4.561154
v 0.000000 4.795878 -4.795880
v -1.482008 4.795878 -4.561153
v -2.818948 4.795878 -3.879948
v -3.879947 4.795878 -2.818947
v -4.561152 4.795878 -1.482008
v -4.795879 4.795878 0.000000
v -4.561152 4.795878 1.482008
v -3.879947 4.795878 2.818947
v -2.818947 4.795878 3.879947
v -1.482008 4.795878 4.561152
v -0.000000 4.795878 4.795878
v 1.482008 4.795878 4.561152
v 2.818946 4.795878 3.879947
v 3.879947 4.795878 2.818946
v 4.561152 4.795878 1.482008
v 4.795878 4.795878 0.000000
v 3.791477 5.487073 -1.231925
v 3.225223 5.487073 -2.343261
v 2.343261 5.487073 -3.225222
v 1.231925 5.487073 -3.791476
v 0.000000 5.487073 -3.986594
v -1.231925 5.487073 -3.791476
v -2.343261 5.487073 -3.225222
v -3.225222 5.487073 -2.343260
v -3.791475 5.487073 -1.231925
v -3.986593 5.487073 0.000000
v -3.791475 5.487073 1.231925
v -3.225222 5.487073 2.343260
v -2.343260 5.487073 3.225221
v -1.231925 5.487073 3.791475
v -0.000000 5.487073 3.986592
v 1.231925 5.487073 3.791475
v 2.343260 5.487073 3.225221
v 3.225221 5.487073 2.343260
v 3.791474 5.487073 1.231925
v 3.986592 5.487073 0.000000
v 2.928441 6.043158 -0.951508
v 2.491081 6.043158 -1.809876
v 1.809876 6.043158 -2.491081
v 0.951508 6.043158 -2.928441
v 0.000000 6.043158 -3.079145
v -0.951508 6.043158 -2.928441
v -1.809876 6.043158 -2.491080
v -2.491080 6.043158 -1.809875
v -2.928440 6.043158 -0.951508
v -3.079144 6.043158 0.000000
v -2.928440 6.043158 0.951508
v -2.491080 6.043158 1.809875
v -1.809875 6.043158 2.491080
v -0.951508 6.043158 2.928440
v -0.000000 6.043158 3.079143
v 0.951508 6.043158 2.928439
v 1.809875 6.043158 2.491079
v 2.491079 6.043158 1.809875
v 2.928439 6.043158 0.951508
v 3.079143 6.043158 0.000000
v 1.993297 6.450441 -0.647662
v 1.695600 6.450441 -1.231925
v 1.231925 6.450441 -1.695600
v 0.647661 6.450441 -1.993297
v 0.000000 6.450441 -2.095876
v -0.647661 6.450441 -1.993297
v -1.231925 6.450441 -1.695599
v -1.695599 6.450441 -1.231925
v -1.993296 6.450441 -0.647661
v -2.095876 6.450441 0.000000
v -1.993296 6.450441 0.647661
v -1.695599 6.450441 1.231925
v -1.231925 6.450441 1.695599
v -0.647661 6.450441 1.993296
v -0.000000 6.450441 2.095876
v 0.647661 6.450441 1.993296
v 1.231925 6.450441 1.695599
v 1.695599 6.450441 1.231925
v 1.993296 6.450441 0.647661
v 2.095875 6.450441 0.000000
v 1.009072 6.698894 -0.327867
v 0.858368 6.698894 -0.623641
v 0.623641 6.698894 -0.858368
v 0.327867 6.698894 -1.009072
v 0.000000 6.698894 -1.061001
v -0.327867 6.698894 -1.009072
v -0.623641 6.698894 -0.858368
v -0.858368 6.698894 -0.623641
v -1.009072 6.698894 -0.327867
v -1.061001 6.698894 0.000000
v -1.009072 6.698894 0.327867
v -0.858368 6.698894 0.623641
v -0.623641 6.698894 0.858368
v -0.327867 6.698894 1.009072
v -0.000000 6.698894 1.061001
v 0.327867 6.698894 1.009071
v 0.623640 6.698894 0.858367
v 0.858367 6.698894 0.623640
v 1.009071 6.698894 0.327867
v 1.061000 6.698894 0.000000
v 0.000000 6.782395 0.000000
vt 0.571512 0.008699
vt 0.629616 0.016942
vt 0.623676 0.044090
vt 0.568564 0.036367
vt 0.686728 0.033697
vt 0.677357 0.059923
vt 0.728042 0.083690
vt 0.789867 0.088373
vt 0.775369 0.113050
vt 0.004141 0.243314
vt 0.038707 0.197407
vt 0.060058 0.215794
vt 0.026805 0.260645
vt 0.079028 0.153750
vt 0.098224 0.174329
vt 0.125868 0.115820
vt 0.142320 0.138727
vt 0.177598 0.085312
vt 0.839869 0.117234
vt 0.824135 0.140766
vt 0.888317 0.152125
vt 0.870134 0.173775
vt 0.931848 0.194216
vt 0.911009 0.213413
vt 0.968574 0.242087
vt 0.945436 0.258783
vt 0.998899 0.292237
vt 0.974213 0.307594
vt 0.514819 0.006236
vt 0.513450 0.034693
vt 0.191302 0.110188
vt 0.230865 0.061524
vt 0.242945 0.087524
vt 0.282615 0.037160
vt 0.292936 0.063238
vt 0.338340 0.017316
vt 0.345748 0.044331
vt 0.397165 0.005535
vt 0.401078 0.033333
vt 0.617676 0.070958
vt 0.565741 0.063976
vt 0.667887 0.085842
vt 0.715274 0.108560
vt 0.761385 0.138792
vt 0.808541 0.164304
vt 0.852028 0.195144
vt 0.890226 0.232288
vt 0.922178 0.275153
vt 0.948362 0.322232
vt 0.513045 0.063306
vt 0.611774 0.097651
vt 0.456869 0.002557
vt 0.457449 0.030820
vt 0.081433 0.234042
vt 0.050535 0.277554
vt 0.117152 0.194797
vt 0.158460 0.161539
vt 0.204669 0.135143
vt 0.563507 0.091631
vt 0.658187 0.111468
vt 0.701800 0.133024
vt 0.748653 0.165687
vt 0.793456 0.188163
vt 0.834093 0.216401
vt 0.869375 0.250788
vt 0.898475 0.290823
vt 0.921292 0.335454
vt 0.514246 0.092530
vt 0.606088 0.124265
vt 0.562189 0.119390
vt 0.255989 0.113277
vt 0.303341 0.089205
vt 0.352970 0.071123
vt 0.404759 0.060903
vt 0.457695 0.058997
vt 0.510817 0.064166
vt 0.103185 0.251825
vt 0.075571 0.293379
vt 0.135989 0.215083
vt 0.648158 0.136829
vt 0.687366 0.156958
vt 0.737638 0.193733
vt 0.779148 0.212547
vt 0.816391 0.237689
vt 0.848352 0.268895
vt 0.874159 0.305562
vt 0.893118 0.346805
vt 0.517468 0.121971
vt 0.600711 0.150893
vt 0.562018 0.147273
vt 0.637735 0.161969
vt 0.174223 0.184374
vt 0.217291 0.160453
vt 0.270742 0.138801
vt 0.314295 0.114937
vt 0.360198 0.097714
vt 0.408097 0.088320
vt 0.457120 0.087144
vt 0.506351 0.093678
vt 0.125550 0.268905
vt 0.671842 0.180264
vt 0.728677 0.222789
vt 0.765813 0.237585
vt 0.798960 0.259136
vt 0.827078 0.286616
vt 0.849156 0.319219
vt 0.864054 0.356012
vt 0.522938 0.151354
vt 0.595720 0.177627
vt 0.563153 0.175273
vt 0.626886 0.186948
vt 0.655188 0.202877
vt 0.101952 0.307647
vt 0.154886 0.235143
vt 0.189576 0.207330
vt 0.228918 0.186257
vt 0.287401 0.163574
vt 0.326113 0.140333
vt 0.367582 0.124133
vt 0.411018 0.115653
vt 0.455440 0.115265
vt 0.721984 0.252616
vt 0.753599 0.263346
vt 0.781826 0.280861
vt 0.805497 0.303990
vt 0.823464 0.331718
vt 0.834377 0.362953
vt 0.530734 0.180372
vt 0.591172 0.204561
vt 0.565676 0.203351
vt 0.615612 0.211845
vt 0.637450 0.224771
vt 0.717640 0.282883
vt 0.499737 0.123037
vt 0.148680 0.285102
vt 0.129579 0.320008
vt 0.173973 0.254953
vt 0.204517 0.230488
vt 0.239395 0.212609
vt 0.306040 0.187242
vt 0.339014 0.165303
vt 0.375248 0.150419
vt 0.742601 0.289834
vt 0.764997 0.302976
vt 0.783571 0.321090
vt 0.797135 0.343058
vt 0.804408 0.367666
vt 0.540777 0.208701
vt 0.587099 0.231778
vt 0.569561 0.231433
vt 0.603957 0.236764
vt 0.618777 0.245985
vt 0.715541 0.313178
vt 0.732826 0.316968
vt 0.413483 0.142974
vt 0.452493 0.143337
vt 0.490874 0.151914
vt 0.172658 0.300278
vt 0.158241 0.330220
vt 0.193370 0.274504
vt 0.219079 0.253907
vt 0.248644 0.239502
vt 0.748462 0.325569
vt 0.761293 0.338030
vt 0.770285 0.353343
vt 0.774481 0.370377
vt 0.552785 0.236028
vt 0.583458 0.259327
vt 0.574561 0.259406
vt 0.592030 0.261828
vt 0.599463 0.266666
vt 0.715276 0.343035
vt 0.724108 0.344533
vt 0.732160 0.348667
vt 0.383309 0.176621
vt 0.415493 0.170350
vt 0.448213 0.171319
vt 0.479821 0.180013
vt 0.197501 0.314342
vt 0.187622 0.338165
vt 0.213189 0.293800
vt 0.233328 0.277635
vt 0.738700 0.354972
vt 0.743110 0.362844
vt 0.744913 0.371568
vt 0.566190 0.262136
vt 0.715924 0.372091
vt 0.254345 0.114954
vt 0.264141 0.143295
vt 0.271956 0.172503
vt 0.280822 0.232489
vt 0.277545 0.202330
vt 0.256670 0.266884
vt 0.281862 0.262668
vt 0.391858 0.202792
vt 0.417084 0.197853
vt 0.442630 0.199168
vt 0.466785 0.207097
vt 0.223131 0.327275
vt 0.217301 0.343896
vt 0.436461 0.257791
vt 0.428334 0.254349
vt 0.419434 0.253510
vt 0.410611 0.255291
vt 0.420563 0.281717
vt 0.402707 0.259526
vt 0.396513 0.265883
vt 0.385147 0.236897
vt 0.372324 0.248853
vt 0.368533 0.213648
vt 0.353135 0.189766
vt 0.233516 0.312863
vt 0.247377 0.301690
vt 0.263592 0.294654
vt 0.280928 0.292564
vt 0.400964 0.228994
vt 0.418347 0.225553
vt 0.435893 0.226846
vt 0.452141 0.233018
vt 0.249313 0.339215
vt 0.348811 0.230081
vt 0.246768 0.347761
vt 0.254370 0.331758
vt 0.261389 0.326058
vt 0.269699 0.322651
vt 0.278536 0.321921
vt 0.275555 0.350627
vt 0.326584 0.209495
vt 0.740556 0.058590
vt 0.759566 0.137579
vt 0.742043 0.161450
vt 0.722704 0.184197
vt 0.701612 0.205484
vt 0.605017 0.273435
vt 0.580024 0.287130
vt 0.630209 0.258895
vt 0.678952 0.225079
vt 0.655019 0.242868
vt 0.183246 0.654798
vt 0.183246 0.560083
vt 0.212515 0.470004
vt 0.268187 0.393377
vt 0.344813 0.337705
vt 0.434893 0.308437
vt 0.529608 0.308437
vt 0.619687 0.337705
vt 0.696314 0.393378
vt 0.751986 0.470004
vt 0.781254 0.560083
vt 0.781254 0.654798
vt 0.751986 0.744878
vt 0.696313 0.821504
vt 0.619687 0.877176
vt 0.529608 0.906445
vt 0.434893 0.906445
vt 0.344813 0.877176
vt 0.268187 0.821504
vt 0.212515 0.744878
vn -0.948125 -0.078459 0.308064
vn -0.939675 -0.154249 0.305318
vn -0.799335 -0.154249 0.580751
vn -0.806523 -0.078459 0.585973
vn -0.580750 -0.154249 0.799335
vn -0.585973 -0.078459 0.806523
vn -0.305319 -0.154249 0.939674
vn -0.308064 -0.078459 0.948125
vn 0.000000 -0.154249 0.988032
vn 0.000000 -0.078459 0.996917
vn 0.305319 -0.154249 0.939674
vn 0.308064 -0.078459 0.948125
vn 0.580751 -0.154249 0.799335
vn 0.585974 -0.078460 0.806523
vn 0.799335 -0.154249 0.580751
vn 0.806523 -0.078459 0.585973
vn 0.939674 -0.154249 0.305319
vn 0.948125 -0.078459 0.308064
vn 0.988032 -0.154249 -0.000000
vn 0.996917 -0.078458 0.000000
vn 0.939674 -0.154249 -0.305319
vn 0.948125 -0.078458 -0.308064
vn 0.799335 -0.154249 -0.580751
vn 0.806523 -0.078459 -0.585974
vn 0.580751 -0.154249 -0.799335
vn 0.585973 -0.078459 -0.806523
vn 0.305319 -0.154249 -0.939674
vn 0.308064 -0.078459 -0.948125
vn 0.000000 -0.154249 -0.988032
vn 0.000000 -0.078459 -0.996917
vn -0.305319 -0.154249 -0.939674
vn -0.308064 -0.078459 -0.948125
vn -0.580751 -0.154248 -0.799335
vn -0.585973 -0.078459 -0.806523
vn -0.799335 -0.154248 -0.580751
vn -0.806523 -0.078459 -0.585973
vn -0.939674 -0.154248 -0.305319
vn -0.948125 -0.078458 -0.308065
vn -0.988032 -0.154249 -0.000001
vn -0.996917 -0.078458 -0.000001
vn -0.905805 -0.304789 0.294313
vn -0.770524 -0.304789 0.559819
vn -0.559818 -0.304789 0.770524
vn -0.294314 -0.304789 0.905805
vn 0.000000 -0.304789 0.952420
vn 0.294314 -0.304789 0.905805
vn 0.559819 -0.304789 0.770524
vn 0.770524 -0.304789 0.559818
vn 0.905805 -0.304789 0.294314
vn 0.952420 -0.304789 0.000000
vn 0.905805 -0.304789 -0.294314
vn 0.770524 -0.304789 -0.559819
vn 0.559818 -0.304788 -0.770524
vn 0.294314 -0.304788 -0.905805
vn -0.000000 -0.304788 -0.952420
vn -0.294314 -0.304789 -0.905805
vn -0.559819 -0.304789 -0.770524
vn -0.770524 -0.304789 -0.559819
vn -0.905805 -0.304789 -0.294314
vn -0.952420 -0.304789 -0.000001
vn -0.850280 -0.447994 0.276272
vn -0.723291 -0.447994 0.525502
vn -0.525501 -0.447994 0.723291
vn -0.276272 -0.447994 0.850279
vn 0.000000 -0.447994 0.894037
vn 0.276273 -0.447994 0.850279
vn 0.525502 -0.447994 0.723291
vn 0.723291 -0.447994 0.525502
vn 0.850280 -0.447994 0.276272
vn 0.894037 -0.447994 0.000000
vn 0.850280 -0.447994 -0.276273
vn 0.723291 -0.447993 -0.525502
vn 0.525501 -0.447994 -0.723291
vn 0.276272 -0.447994 -0.850280
vn 0.000000 -0.447994 -0.894037
vn -0.276273 -0.447994 -0.850279
vn -0.525502 -0.447994 -0.723291
vn -0.723291 -0.447994 -0.525502
vn -0.850280 -0.447994 -0.276273
vn -0.894037 -0.447993 -0.000001
vn -0.774475 -0.580401 0.251641
vn -0.658808 -0.580401 0.478652
vn -0.478652 -0.580401 0.658808
vn -0.251642 -0.580401 0.774475
vn 0.000000 -0.580401 0.814331
vn 0.251642 -0.580401 0.774475
vn 0.478652 -0.580401 0.658808
vn 0.658808 -0.580401 0.478652
vn 0.774475 -0.580401 0.251642
vn 0.814331 -0.580401 -0.000000
vn 0.774475 -0.580401 -0.251642
vn 0.658808 -0.580401 -0.478652
vn 0.478652 -0.580401 -0.658808
vn 0.251642 -0.580401 -0.774475
vn 0.000000 -0.580401 -0.814331
vn -0.251642 -0.580401 -0.774475
vn -0.478652 -0.580401 -0.658808
vn -0.658808 -0.580401 -0.478652
vn -0.774475 -0.580401 -0.251642
vn -0.814331 -0.580401 -0.000001
vn -0.680318 -0.698789 0.221048
vn -0.578712 -0.698789 0.420460
vn -0.420459 -0.698789 0.578713
vn -0.221049 -0.698789 0.680318
vn 0.000000 -0.698789 0.715328
vn 0.221049 -0.698788 0.680318
vn 0.420459 -0.698789 0.578713
vn 0.578713 -0.698789 0.420459
vn 0.680318 -0.698789 0.221048
vn 0.715328 -0.698789 -0.000000
vn 0.680318 -0.698789 -0.221049
vn 0.578713 -0.698789 -0.420459
vn 0.420459 -0.698789 -0.578713
vn 0.221049 -0.698788 -0.680318
vn -0.000000 -0.698788 -0.715328
vn -0.221049 -0.698788 -0.680318
vn -0.420460 -0.698788 -0.578713
vn -0.578713 -0.698788 -0.420459
vn -0.680318 -0.698788 -0.221049
vn -0.715328 -0.698788 -0.000001
vn -0.570315 -0.800252 0.185306
vn -0.485138 -0.800252 0.352474
vn -0.352474 -0.800252 0.485138
vn -0.185306 -0.800252 0.570314
vn 0.000000 -0.800252 0.599664
vn 0.185306 -0.800252 0.570314
vn 0.352474 -0.800252 0.485138
vn 0.485138 -0.800252 0.352474
vn 0.570314 -0.800252 0.185306
vn 0.599664 -0.800252 0.000000
vn 0.570314 -0.800252 -0.185306
vn 0.485138 -0.800252 -0.352474
vn 0.352474 -0.800252 -0.485138
vn 0.185306 -0.800252 -0.570314
vn -0.000000 -0.800252 -0.599664
vn -0.185306 -0.800252 -0.570314
vn -0.352474 -0.800252 -0.485138
vn -0.485139 -0.800252 -0.352474
vn -0.570314 -0.800252 -0.185306
vn -0.599664 -0.800252 -0.000001
vn -0.447711 -0.882266 0.145470
vn -0.380846 -0.882266 0.276701
vn -0.276701 -0.882266 0.380846
vn -0.145470 -0.882266 0.447712
vn 0.000000 -0.882266 0.470752
vn 0.145470 -0.882266 0.447711
vn 0.276701 -0.882266 0.380846
vn 0.380846 -0.882266 0.276701
vn 0.447712 -0.882266 0.145470
vn 0.470752 -0.882266 0.000000
vn 0.447712 -0.882266 -0.145470
vn 0.380846 -0.882266 -0.276701
vn 0.276701 -0.882266 -0.380846
vn 0.145470 -0.882266 -0.447712
vn -0.000000 -0.882266 -0.470752
vn -0.145470 -0.882266 -0.447712
vn -0.276701 -0.882266 -0.380846
vn -0.380846 -0.882266 -0.276701
vn -0.447712 -0.882266 -0.145470
vn -0.470752 -0.882266 -0.000000
vn -0.317252 -0.942722 0.103081
vn -0.269870 -0.942722 0.196072
vn -0.196072 -0.942722 0.269870
vn -0.103081 -0.942722 0.317252
vn 0.000000 -0.942722 0.333578
vn 0.103081 -0.942722 0.317252
vn 0.196072 -0.942722 0.269871
vn 0.269871 -0.942722 0.196072
vn 0.317252 -0.942722 0.103081
vn 0.333578 -0.942722 0.000000
vn 0.317252 -0.942722 -0.103081
vn 0.269871 -0.942722 -0.196073
vn 0.196072 -0.942722 -0.269871
vn 0.103081 -0.942722 -0.317252
vn -0.000000 -0.942722 -0.333579
vn -0.103081 -0.942722 -0.317252
vn -0.196072 -0.942722 -0.269871
vn -0.269871 -0.942722 -0.196073
vn -0.317252 -0.942722 -0.103081
vn -0.333578 -0.942722 -0.000000
vn -0.190555 -0.979722 0.061915
vn -0.162096 -0.979722 0.117770
vn -0.117770 -0.979722 0.162095
vn -0.061915 -0.979722 0.190555
vn 0.000000 -0.979722 0.200362
vn 0.061915 -0.979722 0.190555
vn 0.117770 -0.979722 0.162096
vn 0.162096 -0.979722 0.117770
vn 0.190555 -0.979722 0.061915
vn 0.200362 -0.979722 -0.000000
vn 0.190555 -0.979722 -0.061915
vn 0.162096 -0.979722 -0.117770
vn 0.117770 -0.979722 -0.162096
vn 0.061915 -0.979722 -0.190555
vn -0.000000 -0.979722 -0.200361
vn -0.061915 -0.979722 -0.190555
vn -0.117770 -0.979722 -0.162096
vn -0.162096 -0.979722 -0.117770
vn -0.190555 -0.979722 -0.061915
vn -0.200362 -0.979722 -0.000000
vn -0.000000 -1.000000 -0.000000
vn 0.000000 1.000000 0.000000
vn 0.000000 1.000000 0.000000
vn 0.000000 1.000000 0.000000
vn 0.000000 1.000000 0.000000
vn 0.000000 1.000000 0.000000
vn 0.000000 1.000000 0.000000
vn 0.000000 1.000000 0.000000
vn 0.000000 1.000000 0.000000
vn 0.000000 1.000000 0.000000
vn 0.000000 1.000000 0.000000
vn 0.000000 1.000000 0.000000
vn 0.000000 1.000000 0.000000
vn 0.000000 1.000000 0.000000
vn 0.000000 1.000000 0.000000
vn 0.000000 1.000000 0.000000
vn 0.000000 1.000000 0.000000
vn 0.000000 1.000000 0.000000
vn 0.000000 1.000000 0.000000
vn 0.000000 1.000000 0.000000
vn 0.000000 1.000000 0.000000
s 1
g pSphere1
usemtl initialShadingGroup
f 1/1/1 21/4/2 22/3/3 2/2/4
f 2/2/4 22/3/3 23/6/5 3/5/6
f 3/5/6 23/6/5 24/7/7 4/229/8
f 4/229/8 24/7/7 25/9/9 5/8/10
f 5/8/10 25/9/9 26/20/11 6/19/12
f 6/19/12 26/20/11 27/22/13 7/21/14
f 7/21/14 27/22/13 28/24/15 8/23/16
f 8/23/16 28/24/15 29/26/17 9/25/18
f 9/25/18 29/26/17 30/28/19 10/27/20
f 10/10/20 30/13/19 31/12/21 11/11/22
f 11/11/22 31/12/21 32/15/23 12/14/24
f 12/14/24 32/15/23 33/17/25 13/16/26
f 13/16/26 33/17/25 34/31/27 14/18/28
f 14/18/28 34/31/27 35/33/29 15/32/30
f 15/32/30 35/33/29 36/35/31 16/34/32
f 16/34/32 36/35/31 37/37/33 17/36/34
f 17/36/34 37/37/33 38/39/35 18/38/36
f 18/38/36 38/39/35 39/53/37 19/52/38
f 19/52/38 39/53/37 40/30/39 20/29/40
f 20/29/40 40/30/39 21/4/2 1/1/1
f 21/4/2 41/41/41 42/40/42 22/3/3
f 22/3/3 42/40/42 43/42/43 23/6/5
f 23/6/5 43/42/43 44/43/44 24/7/7
f 24/7/7 44/43/44 45/230/45 25/9/9
f 25/9/9 45/44/45 46/45/46 26/20/11
f 26/20/11 46/45/46 47/46/47 27/22/13
f 27/22/13 47/46/47 48/47/48 28/24/15
f 28/24/15 48/47/48 49/48/49 29/26/17
f 29/26/17 49/48/49 50/49/50 30/28/19
f 30/13/19 50/55/50 51/54/51 31/12/21
f 31/12/21 51/54/51 52/56/52 32/15/23
f 32/15/23 52/56/52 53/57/53 33/17/25
f 33/17/25 53/57/53 54/58/54 34/31/27
f 34/31/27 54/58/54 55/188/55 35/33/29
f 35/33/29 55/71/55 56/72/56 36/35/31
f 36/35/31 56/72/56 57/73/57 37/37/33
f 37/37/33 57/73/57 58/74/58 38/39/35
f 38/39/35 58/74/58 59/75/59 39/53/37
f 39/53/37 59/75/59 60/76/60 40/30/39
f 40/30/39 60/50/60 41/41/41 21/4/2
f 41/41/41 61/59/61 62/51/62 42/40/42
f 42/40/42 62/51/62 63/60/63 43/42/43
f 43/42/43 63/60/63 64/61/64 44/43/44
f 44/43/44 64/61/64 65/231/65 45/230/45
f 45/44/45 65/62/65 66/63/66 46/45/46
f 46/45/46 66/63/66 67/64/67 47/46/47
f 47/46/47 67/64/67 68/65/68 48/47/48
f 48/47/48 68/65/68 69/66/69 49/48/49
f 49/48/49 69/66/69 70/67/70 50/49/50
f 50/55/50 70/78/70 71/77/71 51/54/51
f 51/54/51 71/77/71 72/79/72 52/56/52
f 52/56/52 72/79/72 73/92/73 53/57/53
f 53/57/53 73/92/73 74/93/74 54/58/54
f 54/58/54 74/93/74 75/189/75 55/188/55
f 55/71/55 75/94/75 76/95/76 56/72/56
f 56/72/56 76/95/76 77/96/77 57/73/57
f 57/73/57 77/96/77 78/97/78 58/74/58
f 58/74/58 78/97/78 79/98/79 59/75/59
f 59/75/59 79/98/79 80/99/80 60/76/60
f 60/50/60 80/68/80 61/59/61 41/41/41
f 61/59/61 81/70/81 82/69/82 62/51/62
f 62/51/62 82/69/82 83/80/83 63/60/63
f 63/60/63 83/80/83 84/81/84 64/61/64
f 64/61/64 84/81/84 85/232/85 65/231/65
f 65/62/65 85/82/85 86/83/86 66/63/66
f 66/63/66 86/83/86 87/84/87 67/64/67
f 67/64/67 87/84/87 88/85/88 68/65/68
f 68/65/68 88/85/88 89/86/89 69/66/69
f 69/66/69 89/86/89 90/87/90 70/67/70
f 70/78/70 90/113/90 91/100/91 71/77/71
f 71/77/71 91/100/91 92/114/92 72/79/72
f 72/79/72 92/114/92 93/115/93 73/92/73
f 73/92/73 93/115/93 94/116/94 74/93/74
f 74/93/74 94/116/94 95/190/95 75/189/75
f 75/94/75 95/117/95 96/118/96 76/95/76
f 76/95/76 96/118/96 97/119/97 77/96/77
f 77/96/77 97/119/97 98/120/98 78/97/78
f 78/97/78 98/120/98 99/121/99 79/98/79
f 79/98/79 99/121/99 100/134/100 80/99/80
f 80/68/80 100/88/100 81/70/81 61/59/61
f 81/70/81 101/90/101 102/89/102 82/69/82
f 82/69/82 102/89/102 103/91/103 83/80/83
f 83/80/83 103/91/103 104/101/104 84/81/84
f 84/81/84 104/101/104 105/233/105 85/232/85
f 85/82/85 105/102/105 106/103/106 86/83/86
f 86/83/86 106/103/106 107/104/107 87/84/87
f 87/84/87 107/104/107 108/105/108 88/85/88
f 88/85/88 108/105/108 109/106/109 89/86/89
f 89/86/89 109/106/109 110/107/110 90/87/90
f 90/113/90 110/136/110 111/135/111 91/100/91
f 91/100/91 111/135/111 112/137/112 92/114/92
f 92/114/92 112/137/112 113/138/113 93/115/93
f 93/115/93 113/138/113 114/139/114 94/116/94
f 94/116/94 114/139/114 115/192/115 95/190/95
f 95/117/95 115/140/115 116/141/116 96/118/96
f 96/118/96 116/141/116 117/142/117 97/119/97
f 97/119/97 117/142/117 118/155/118 98/120/98
f 98/120/98 118/155/118 119/156/119 99/121/99
f 99/121/99 119/156/119 120/157/120 100/134/100
f 100/88/100 120/108/120 101/90/101 81/70/81
f 101/90/101 121/110/121 122/109/122 102/89/102
f 102/89/102 122/109/122 123/111/123 103/91/103
f 103/91/103 123/111/123 124/112/124 104/101/104
f 104/101/104 124/112/124 125/237/125 105/233/105
f 105/102/105 125/122/125 126/123/126 106/103/106
f 106/103/106 126/123/126 127/124/127 107/104/107
f 107/104/107 127/124/127 128/125/128 108/105/108
f 108/105/108 128/125/128 129/126/129 109/106/109
f 109/106/109 129/126/129 130/127/130 110/107/110
f 110/136/110 130/159/130 131/158/131 111/135/111
f 111/135/111 131/158/131 132/160/132 112/137/112
f 112/137/112 132/160/132 133/161/133 113/138/113
f 113/138/113 133/161/133 134/162/134 114/139/114
f 114/139/114 134/162/134 135/191/135 115/192/115
f 115/140/115 135/228/135 136/211/136 116/141/116
f 116/141/116 136/211/136 137/175/137 117/142/117
f 117/142/117 137/175/137 138/176/138 118/155/118
f 118/155/118 138/176/138 139/177/139 119/156/119
f 119/156/119 139/177/139 140/178/140 120/157/120
f 120/108/120 140/128/140 121/110/121 101/90/101
f 121/110/121 141/130/141 142/129/142 122/109/122
f 122/109/122 142/129/142 143/131/143 123/111/123
f 123/111/123 143/131/143 144/132/144 124/112/124
f 124/112/124 144/132/144 145/238/145 125/237/125
f 125/122/125 145/133/145 146/143/146 126/123/126
f 126/123/126 146/143/146 147/144/147 127/124/127
f 127/124/127 147/144/147 148/145/148 128/125/128
f 128/125/128 148/145/148 149/146/149 129/126/129
f 129/126/129 149/146/149 150/147/150 130/127/130
f 130/159/130 150/180/150 151/179/151 131/158/131
f 131/158/131 151/179/151 152/181/152 132/160/132
f 132/160/132 152/181/152 153/182/153 133/161/133
f 133/161/133 153/182/153 154/193/154 134/162/134
f 134/162/134 154/193/154 155/194/155 135/191/135
f 135/228/135 155/221/155 156/210/156 136/211/136
f 136/211/136 156/210/156 157/195/157 137/175/137
f 137/175/137 157/195/157 158/196/158 138/176/138
f 138/176/138 158/196/158 159/197/159 139/177/139
f 139/177/139 159/197/159 160/198/160 140/178/140
f 140/128/140 160/148/160 141/130/141 121/110/121
f 141/130/141 161/150/161 162/149/162 142/129/142
f 142/129/142 162/149/162 163/151/163 143/131/143
f 143/131/143 163/151/163 164/152/164 144/132/144
f 144/132/144 164/152/164 165/236/165 145/238/145
f 145/133/145 165/153/165 166/154/166 146/143/146
f 146/143/146 166/154/166 167/163/167 147/144/147
f 147/144/147 167/163/167 168/164/168 148/145/148
f 148/145/148 168/164/168 169/165/169 149/146/149
f 149/146/149 169/165/169 170/166/170 150/147/150
f 150/180/150 170/200/170 171/199/171 151/179/151
f 151/179/151 171/199/171 172/212/172 152/181/152
f 152/181/152 172/212/172 173/213/173 153/182/153
f 153/182/153 173/213/173 174/214/174 154/193/154
f 154/193/154 174/214/174 175/215/175 155/194/155
f 155/221/155 175/209/175 176/208/176 156/210/156
f 156/210/156 176/208/176 177/216/177 157/195/157
f 157/195/157 177/216/177 178/217/178 158/196/158
f 158/196/158 178/217/178 179/218/179 159/197/159
f 159/197/159 179/218/179 180/219/180 160/198/160
f 160/148/160 180/167/180 161/150/161 141/130/141
f 161/150/161 181/169/181 182/168/182 162/149/162
f 162/149/162 182/168/182 183/170/183 163/151/163
f 163/151/163 183/170/183 184/171/184 164/152/164
f 164/152/164 184/171/184 185/234/185 165/236/165
f 165/153/165 185/172/185 186/173/186 166/154/166
f 166/154/166 186/173/186 187/174/187 167/163/167
f 167/163/167 187/174/187 188/183/188 168/164/168
f 168/164/168 188/183/188 189/184/189 169/165/169
f 169/165/169 189/184/189 190/185/190 170/166/170
f 170/200/170 190/222/190 191/220/191 171/199/171
f 171/199/171 191/220/191 192/223/192 172/212/172
f 172/212/172 192/223/192 193/224/193 173/213/173
f 173/213/173 193/224/193 194/225/194 174/214/174
f 174/214/174 194/225/194 195/226/195 175/215/175
f 175/209/175 195/207/195 196/206/196 176/208/176
f 176/208/176 196/206/196 197/204/197 177/216/177
f 177/216/177 197/204/197 198/203/198 178/217/178
f 178/217/178 198/203/198 199/202/199 179/218/179
f 179/218/179 199/202/199 200/201/200 180/219/180
f 180/167/180 200/186/200 181/169/181 161/150/161
f 181/169/181 201/235/201 182/168/182
f 182/168/182 201/235/201 183/170/183
f 183/170/183 201/235/201 184/171/184
f 184/171/184 201/235/201 185/234/185
f 185/172/185 201/187/201 186/173/186
f 186/173/186 201/187/201 187/174/187
f 187/174/187 201/187/201 188/183/188
f 188/183/188 201/187/201 189/184/189
f 189/184/189 201/187/201 190/185/190
f 190/222/190 201/227/201 191/220/191
f 191/220/191 201/227/201 192/223/192
f 192/223/192 201/227/201 193/224/193
f 193/224/193 201/227/201 194/225/194
f 194/225/194 201/227/201 195/226/195
f 195/207/195 201/205/201 196/206/196
f 196/206/196 201/205/201 197/204/197
f 197/204/197 201/205/201 198/203/198
f 198/203/198 201/205/201 199/202/199
f 199/202/199 201/205/201 200/201/200
f 200/186/200 201/235/201 181/169/181
s off
f 2/239/202 3/258/203 4/257/204 5/256/205 6/255/206 7/254/207 8/253/208 9/252/209 10/251/210 11/250/211 12/249/212 13/248/213 14/247/214 15/246/215 16/245/216 17/244/217 18/243/218 19/242/219 20/241/220 1/240/221
